This is BibTeX, Version 0.99d (TeX Live 2017/Debian)
Capacity: max_strings=100000, hash_size=100000, hash_prime=85009
The top-level auxiliary file: main.aux
The style file: biblatex.bst
Reallocated glb_str_ptr (elt_size=4) to 20 items from 10.
Reallocated global_strs (elt_size=20001) to 20 items from 10.
Reallocated glb_str_end (elt_size=4) to 20 items from 10.
Reallocated singl_function (elt_size=4) to 100 items from 50.
Reallocated singl_function (elt_size=4) to 100 items from 50.
Reallocated singl_function (elt_size=4) to 100 items from 50.
Reallocated wiz_functions (elt_size=4) to 6000 items from 3000.
Reallocated singl_function (elt_size=4) to 100 items from 50.
Reallocated singl_function (elt_size=4) to 100 items from 50.
Reallocated singl_function (elt_size=4) to 100 items from 50.
Reallocated singl_function (elt_size=4) to 100 items from 50.
Reallocated singl_function (elt_size=4) to 100 items from 50.
Reallocated singl_function (elt_size=4) to 100 items from 50.
Reallocated singl_function (elt_size=4) to 100 items from 50.
Database file #1: main-blx.bib
Database file #2: example.bib
Biblatex version: 3.8
Reallocated wiz_functions (elt_size=4) to 9000 items from 6000.
Reallocated singl_function (elt_size=4) to 100 items from 50.
You've used 32 entries,
            6268 wiz_defined-function locations,
            1356 strings with 12434 characters,
and the built_in function-call counts, 86269 in all, are:
= -- 4105
> -- 1748
< -- 490
+ -- 1247
- -- 563
* -- 4882
:= -- 6214
add.period$ -- 0
call.type$ -- 32
change.case$ -- 209
chr.to.int$ -- 47
cite$ -- 62
duplicate$ -- 10424
empty$ -- 10176
format.name$ -- 994
if$ -- 18995
int.to.chr$ -- 0
int.to.str$ -- 60
missing$ -- 0
newline$ -- 566
num.names$ -- 857
pop$ -- 10115
preamble$ -- 1
purify$ -- 281
quote$ -- 0
skip$ -- 3781
stack$ -- 0
substring$ -- 4607
swap$ -- 2921
text.length$ -- 475
text.prefix$ -- 0
top$ -- 1
type$ -- 1076
warning$ -- 0
while$ -- 805
width$ -- 0
write$ -- 535
