\relax 
\providecommand\hyper@newdestlabel[2]{}
\providecommand\HyperFirstAtBeginDocument{\AtBeginDocument}
\HyperFirstAtBeginDocument{\ifx\hyper@anchor\@undefined
\global\let\oldcontentsline\contentsline
\gdef\contentsline#1#2#3#4{\oldcontentsline{#1}{#2}{#3}}
\global\let\oldnewlabel\newlabel
\gdef\newlabel#1#2{\newlabelxx{#1}#2}
\gdef\newlabelxx#1#2#3#4#5#6{\oldnewlabel{#1}{{#2}{#3}}}
\AtEndDocument{\ifx\hyper@anchor\@undefined
\let\contentsline\oldcontentsline
\let\newlabel\oldnewlabel
\fi}
\fi}
\global\let\hyper@last\relax 
\gdef\HyperFirstAtBeginDocument#1{#1}
\providecommand\HyField@AuxAddToFields[1]{}
\providecommand\HyField@AuxAddToCoFields[2]{}
\bibstyle{biblatex}
\bibdata{main-blx,example}
\citation{biblatex-control}
\abx@aux@refcontext{none/global//global/global}
\@writefile{toc}{\boolfalse {citerequest}\boolfalse {citetracker}\boolfalse {pagetracker}\boolfalse {backtracker}\relax }
\@writefile{lof}{\boolfalse {citerequest}\boolfalse {citetracker}\boolfalse {pagetracker}\boolfalse {backtracker}\relax }
\@writefile{lot}{\boolfalse {citerequest}\boolfalse {citetracker}\boolfalse {pagetracker}\boolfalse {backtracker}\relax }
\citation{SDL}
\abx@aux@cite{SDL}
\abx@aux@segm{0}{0}{SDL}
\citation{PSXSDK}
\abx@aux@cite{PSXSDK}
\abx@aux@segm{0}{0}{PSXSDK}
\citation{DoomFandom}
\abx@aux@cite{DoomFandom}
\abx@aux@segm{0}{0}{DoomFandom}
\citation{SDLWiki}
\abx@aux@cite{SDLWiki}
\abx@aux@segm{0}{0}{SDLWiki}
\citation{SDLApi}
\abx@aux@cite{SDLApi}
\abx@aux@segm{0}{0}{SDLApi}
\@writefile{toc}{\defcounter {refsection}{0}\relax }\@writefile{toc}{\contentsline {chapter}{\numberline {1}Simple DirectMedia Layer}{7}{chapter.1}}
\@writefile{lof}{\defcounter {refsection}{0}\relax }\@writefile{lof}{\addvspace {10\p@ }}
\@writefile{lot}{\defcounter {refsection}{0}\relax }\@writefile{lot}{\addvspace {10\p@ }}
\newlabel{Chapter1}{{1}{7}{Simple DirectMedia Layer}{chapter.1}{}}
\@writefile{toc}{\defcounter {refsection}{0}\relax }\@writefile{toc}{\contentsline {section}{\numberline {1.1}About/History}{7}{section.1.1}}
\@writefile{toc}{\defcounter {refsection}{0}\relax }\@writefile{toc}{\contentsline {section}{\numberline {1.2}Usage}{8}{section.1.2}}
\newlabel{fig:sdlapp}{{1.1}{8}{An example SDL 1.2 application}{lstlisting.1.1}{}}
\@writefile{lol}{\defcounter {refsection}{0}\relax }\@writefile{lol}{\contentsline {lstlisting}{\numberline {1.1}An example SDL 1.2 application}{8}{lstlisting.1.1}}
\citation{SDLimage}
\abx@aux@cite{SDLimage}
\abx@aux@segm{0}{0}{SDLimage}
\@writefile{toc}{\defcounter {refsection}{0}\relax }\@writefile{toc}{\contentsline {subsection}{\numberline {1.2.1}Graphics}{9}{subsection.1.2.1}}
\newlabel{section:sdlgraphics}{{1.2.1}{9}{Graphics}{subsection.1.2.1}{}}
\@writefile{lof}{\defcounter {refsection}{0}\relax }\@writefile{lof}{\contentsline {figure}{\numberline {1.1}{\ignorespaces Drawing a BMP image in SDL.}}{10}{figure.1.1}}
\newlabel{fig:drawbmp}{{1.1}{10}{Drawing a BMP image in SDL}{figure.1.1}{}}
\@writefile{lof}{\defcounter {refsection}{0}\relax }\@writefile{lof}{\contentsline {figure}{\numberline {1.2}{\ignorespaces SDL\_BlitSurface() after clipping.}}{10}{figure.1.2}}
\newlabel{fig:cliprect}{{1.2}{10}{SDL\_BlitSurface() after clipping}{figure.1.2}{}}
\@writefile{toc}{\defcounter {refsection}{0}\relax }\@writefile{toc}{\contentsline {subsection}{\numberline {1.2.2}Events}{10}{subsection.1.2.2}}
\newlabel{sdlevents}{{1.2.2}{10}{Events}{subsection.1.2.2}{}}
\citation{sdlmixer}
\abx@aux@cite{sdlmixer}
\abx@aux@segm{0}{0}{sdlmixer}
\citation{sdlmixer}
\abx@aux@segm{0}{0}{sdlmixer}
\@writefile{lof}{\defcounter {refsection}{0}\relax }\@writefile{lof}{\contentsline {figure}{\numberline {1.3}{\ignorespaces Checking for controller events.}}{11}{figure.1.3}}
\newlabel{fig:checkhats}{{1.3}{11}{Checking for controller events}{figure.1.3}{}}
\@writefile{toc}{\defcounter {refsection}{0}\relax }\@writefile{toc}{\contentsline {subsection}{\numberline {1.2.3}Audio}{11}{subsection.1.2.3}}
\citation{sdlmixer}
\abx@aux@segm{0}{0}{sdlmixer}
\citation{sdlmixer}
\abx@aux@segm{0}{0}{sdlmixer}
\citation{PS2}
\abx@aux@cite{PS2}
\abx@aux@segm{0}{0}{PS2}
\citation{SDLGithub}
\abx@aux@cite{SDLGithub}
\abx@aux@segm{0}{0}{SDLGithub}
\citation{PS3_l1ght}
\abx@aux@cite{PS3_l1ght}
\abx@aux@segm{0}{0}{PS3_l1ght}
\@writefile{lof}{\defcounter {refsection}{0}\relax }\@writefile{lof}{\contentsline {figure}{\numberline {1.4}{\ignorespaces Example usage of the SDL\_Mixer library.}}{12}{figure.1.4}}
\newlabel{fig:mixerexample}{{1.4}{12}{Example usage of the SDL\_Mixer library}{figure.1.4}{}}
\@writefile{toc}{\defcounter {refsection}{0}\relax }\@writefile{toc}{\contentsline {section}{\numberline {1.3}Related Work}{12}{section.1.3}}
\citation{SDLGithub}
\abx@aux@segm{0}{0}{SDLGithub}
\citation{NintendoDS}
\abx@aux@cite{NintendoDS}
\abx@aux@segm{0}{0}{NintendoDS}
\citation{NintendoDS}
\abx@aux@segm{0}{0}{NintendoDS}
\citation{3DS}
\abx@aux@cite{3DS}
\abx@aux@segm{0}{0}{3DS}
\citation{Dreamcast}
\abx@aux@cite{Dreamcast}
\abx@aux@segm{0}{0}{Dreamcast}
\citation{Xbox}
\abx@aux@cite{Xbox}
\abx@aux@segm{0}{0}{Xbox}
\citation{Everything}
\abx@aux@cite{Everything}
\abx@aux@segm{0}{0}{Everything}
\citation{Titles}
\abx@aux@cite{Titles}
\abx@aux@segm{0}{0}{Titles}
\citation{Units}
\abx@aux@cite{Units}
\abx@aux@segm{0}{0}{Units}
\citation{NEXT6}
\abx@aux@cite{NEXT6}
\abx@aux@segm{0}{0}{NEXT6}
\citation{NOPSX}
\abx@aux@cite{NOPSX}
\abx@aux@segm{0}{0}{NOPSX}
\citation{Everything}
\abx@aux@segm{0}{0}{Everything}
\@writefile{toc}{\defcounter {refsection}{0}\relax }\@writefile{toc}{\contentsline {chapter}{\numberline {2}The SONY PlayStation\textsuperscript  {\textregistered } 1}{14}{chapter.2}}
\@writefile{lof}{\defcounter {refsection}{0}\relax }\@writefile{lof}{\addvspace {10\p@ }}
\@writefile{lot}{\defcounter {refsection}{0}\relax }\@writefile{lot}{\addvspace {10\p@ }}
\newlabel{Chapter2}{{2}{14}{The SONY PlayStation\textsuperscript {\textregistered } 1}{chapter.2}{}}
\@writefile{toc}{\defcounter {refsection}{0}\relax }\@writefile{toc}{\contentsline {section}{\numberline {2.1}History}{14}{section.2.1}}
\@writefile{toc}{\defcounter {refsection}{0}\relax }\@writefile{toc}{\contentsline {section}{\numberline {2.2}System Overview/Hardware Specifications}{14}{section.2.2}}
\newlabel{sysoverview}{{2.2}{14}{System Overview/Hardware Specifications}{section.2.2}{}}
\citation{NEXT}
\abx@aux@cite{NEXT}
\abx@aux@segm{0}{0}{NEXT}
\citation{Everything}
\abx@aux@segm{0}{0}{Everything}
\citation{Everything}
\abx@aux@segm{0}{0}{Everything}
\citation{NEXT}
\abx@aux@segm{0}{0}{NEXT}
\citation{hitmen}
\abx@aux@cite{hitmen}
\abx@aux@segm{0}{0}{hitmen}
\citation{hitmen}
\abx@aux@segm{0}{0}{hitmen}
\@writefile{lof}{\defcounter {refsection}{0}\relax }\@writefile{lof}{\contentsline {figure}{\numberline {2.1}{\ignorespaces PSX hardware Layout \cite {NEXT6}}}{15}{figure.2.1}}
\newlabel{fig:psx_circuit}{{2.1}{15}{PSX hardware Layout \cite {NEXT6}}{figure.2.1}{}}
\@writefile{toc}{\defcounter {refsection}{0}\relax }\@writefile{toc}{\contentsline {subsection}{\numberline {2.2.1}CPU}{15}{subsection.2.2.1}}
\@writefile{toc}{\defcounter {refsection}{0}\relax }\@writefile{toc}{\contentsline {subsection}{\numberline {2.2.2}MDEC}{15}{subsection.2.2.2}}
\@writefile{toc}{\defcounter {refsection}{0}\relax }\@writefile{toc}{\contentsline {subsection}{\numberline {2.2.3}GTE}{15}{subsection.2.2.3}}
\citation{NOPSX}
\abx@aux@segm{0}{0}{NOPSX}
\citation{NOPSX}
\abx@aux@segm{0}{0}{NOPSX}
\citation{Everything}
\abx@aux@segm{0}{0}{Everything}
\@writefile{toc}{\defcounter {refsection}{0}\relax }\@writefile{toc}{\contentsline {subsection}{\numberline {2.2.4}GPU \& Video RAM}{16}{subsection.2.2.4}}
\newlabel{gpuoverview}{{2.2.4}{16}{GPU \& Video RAM}{subsection.2.2.4}{}}
\@writefile{lof}{\defcounter {refsection}{0}\relax }\@writefile{lof}{\contentsline {figure}{\numberline {2.2}{\ignorespaces PSX VRAM Pixel Format}}{16}{figure.2.2}}
\newlabel{fig:vram_format}{{2.2}{16}{PSX VRAM Pixel Format}{figure.2.2}{}}
\@writefile{lof}{\defcounter {refsection}{0}\relax }\@writefile{lof}{\contentsline {figure}{\numberline {2.3}{\ignorespaces 8bit (top) and 4bit (bottom) CLUT pixel mode as stored in VRAM - One pixel in VRAM stores 2 or 4 palette indices.}}{16}{figure.2.3}}
\newlabel{fig:8bit_format}{{2.3}{16}{8bit (top) and 4bit (bottom) CLUT pixel mode as stored in VRAM - One pixel in VRAM stores 2 or 4 palette indices}{figure.2.3}{}}
\citation{Everything}
\abx@aux@segm{0}{0}{Everything}
\citation{Everything}
\abx@aux@segm{0}{0}{Everything}
\citation{zigmahornet}
\abx@aux@cite{zigmahornet}
\abx@aux@segm{0}{0}{zigmahornet}
\citation{musicalmusings}
\abx@aux@cite{musicalmusings}
\abx@aux@segm{0}{0}{musicalmusings}
\citation{cdplayerscreen}
\abx@aux@cite{cdplayerscreen}
\abx@aux@segm{0}{0}{cdplayerscreen}
\citation{Everything}
\abx@aux@segm{0}{0}{Everything}
\citation{hitmen}
\abx@aux@segm{0}{0}{hitmen}
\@writefile{lof}{\defcounter {refsection}{0}\relax }\@writefile{lof}{\contentsline {figure}{\numberline {2.4}{\ignorespaces Typical PSX VRAM layout. Each rectangle represents a texture page (64x256 px each)}}{17}{figure.2.4}}
\newlabel{fig:vram}{{2.4}{17}{Typical PSX VRAM layout. Each rectangle represents a texture page (64x256 px each)}{figure.2.4}{}}
\@writefile{toc}{\defcounter {refsection}{0}\relax }\@writefile{toc}{\contentsline {subsection}{\numberline {2.2.5}SPU}{17}{subsection.2.2.5}}
\newlabel{spusection}{{2.2.5}{17}{SPU}{subsection.2.2.5}{}}
\@writefile{lof}{\defcounter {refsection}{0}\relax }\@writefile{lof}{\contentsline {figure}{\numberline {2.5}{\ignorespaces PSX Bios CD Player \cite {cdplayerscreen}}}{18}{figure.2.5}}
\newlabel{fig:cdplayer}{{2.5}{18}{PSX Bios CD Player \cite {cdplayerscreen}}{figure.2.5}{}}
\citation{PSXSDK}
\abx@aux@segm{0}{0}{PSXSDK}
\citation{PSXSDK}
\abx@aux@segm{0}{0}{PSXSDK}
\@writefile{toc}{\defcounter {refsection}{0}\relax }\@writefile{toc}{\contentsline {chapter}{\numberline {3}PSXSDK}{19}{chapter.3}}
\@writefile{lof}{\defcounter {refsection}{0}\relax }\@writefile{lof}{\addvspace {10\p@ }}
\@writefile{lot}{\defcounter {refsection}{0}\relax }\@writefile{lot}{\addvspace {10\p@ }}
\newlabel{Chapter3}{{3}{19}{PSXSDK}{chapter.3}{}}
\@writefile{toc}{\defcounter {refsection}{0}\relax }\@writefile{toc}{\contentsline {section}{\numberline {3.1}About}{19}{section.3.1}}
\@writefile{toc}{\defcounter {refsection}{0}\relax }\@writefile{toc}{\contentsline {section}{\numberline {3.2}Installation}{19}{section.3.2}}
\@writefile{toc}{\defcounter {refsection}{0}\relax }\@writefile{toc}{\contentsline {section}{\numberline {3.3}Usage}{20}{section.3.3}}
\newlabel{lst:hellopsxsdk}{{3.1}{20}{An example application using PSXSDK (included with the windows version of the SDK)}{lstlisting.3.1}{}}
\@writefile{lol}{\defcounter {refsection}{0}\relax }\@writefile{lol}{\contentsline {lstlisting}{\numberline {3.1}An example application using PSXSDK (included with the windows version of the SDK)}{20}{lstlisting.3.1}}
\citation{PSXSDK}
\abx@aux@segm{0}{0}{PSXSDK}
\@writefile{lof}{\defcounter {refsection}{0}\relax }\@writefile{lof}{\contentsline {figure}{\numberline {3.1}{\ignorespaces Example PSXSDK program running on a PlayStation\textsuperscript  {\textregistered }}}{22}{figure.3.1}}
\newlabel{fig:hello_psx}{{3.1}{22}{Example PSXSDK program running on a PlayStation\textsuperscript {\textregistered }}{figure.3.1}{}}
\@writefile{toc}{\defcounter {refsection}{0}\relax }\@writefile{toc}{\contentsline {subsection}{\numberline {3.3.1}Primitives and Sprites}{22}{subsection.3.3.1}}
\@writefile{lof}{\defcounter {refsection}{0}\relax }\@writefile{lof}{\contentsline {figure}{\numberline {3.2}{\ignorespaces Example drawing a line using PSXSDK.}}{22}{figure.3.2}}
\newlabel{fig:gsline}{{3.2}{22}{Example drawing a line using PSXSDK}{figure.3.2}{}}
\citation{PSXSDK}
\abx@aux@segm{0}{0}{PSXSDK}
\@writefile{lof}{\defcounter {refsection}{0}\relax }\@writefile{lof}{\contentsline {figure}{\numberline {3.3}{\ignorespaces Example setting up a \textit  {GsSprite} for drawing using PSXSDK.}}{23}{figure.3.3}}
\newlabel{fig:drawsprite}{{3.3}{23}{Example setting up a \textit {GsSprite} for drawing using PSXSDK}{figure.3.3}{}}
\@writefile{lof}{\defcounter {refsection}{0}\relax }\@writefile{lof}{\contentsline {figure}{\numberline {3.4}{\ignorespaces Uploading and drawing a textured sprite using PSXSDK.}}{24}{figure.3.4}}
\newlabel{fig:uploadsprite}{{3.4}{24}{Uploading and drawing a textured sprite using PSXSDK}{figure.3.4}{}}
\@writefile{toc}{\defcounter {refsection}{0}\relax }\@writefile{toc}{\contentsline {subsection}{\numberline {3.3.2}Controllers/Events}{24}{subsection.3.3.2}}
\@writefile{lof}{\defcounter {refsection}{0}\relax }\@writefile{lof}{\contentsline {figure}{\numberline {3.5}{\ignorespaces Reading the PlayStation\textsuperscript  {\textregistered } controller using PSXSDK}}{24}{figure.3.5}}
\newlabel{fig:readcontroller}{{3.5}{24}{Reading the PlayStation\textsuperscript {\textregistered } controller using PSXSDK}{figure.3.5}{}}
\@writefile{lof}{\defcounter {refsection}{0}\relax }\@writefile{lof}{\contentsline {figure}{\numberline {3.6}{\ignorespaces Reading the PlayStation\textsuperscript  {\textregistered } controller using PSXSDK}}{24}{figure.3.6}}
\newlabel{fig:analogread}{{3.6}{24}{Reading the PlayStation\textsuperscript {\textregistered } controller using PSXSDK}{figure.3.6}{}}
\citation{PSXSDK}
\abx@aux@segm{0}{0}{PSXSDK}
\citation{hitmen}
\abx@aux@segm{0}{0}{hitmen}
\citation{hitmen}
\abx@aux@segm{0}{0}{hitmen}
\citation{asmalljourney}
\abx@aux@cite{asmalljourney}
\abx@aux@segm{0}{0}{asmalljourney}
\@writefile{toc}{\defcounter {refsection}{0}\relax }\@writefile{toc}{\contentsline {subsection}{\numberline {3.3.3}Sound}{25}{subsection.3.3.3}}
\newlabel{psxsdksound}{{3.3.3}{25}{Sound}{subsection.3.3.3}{}}
\@writefile{lof}{\defcounter {refsection}{0}\relax }\@writefile{lof}{\contentsline {figure}{\numberline {3.7}{\ignorespaces Playing a raw sound byte on SPU channel 0 using PSXSDK}}{25}{figure.3.7}}
\newlabel{fig:rawsound}{{3.7}{25}{Playing a raw sound byte on SPU channel 0 using PSXSDK}{figure.3.7}{}}
\@writefile{lof}{\defcounter {refsection}{0}\relax }\@writefile{lof}{\contentsline {figure}{\numberline {3.8}{\ignorespaces Playing a MOD file}}{26}{figure.3.8}}
\newlabel{fig:modsound}{{3.8}{26}{Playing a MOD file}{figure.3.8}{}}
\@writefile{lof}{\defcounter {refsection}{0}\relax }\@writefile{lof}{\contentsline {figure}{\numberline {3.9}{\ignorespaces Playing a VAG file}}{26}{figure.3.9}}
\newlabel{fig:playvag}{{3.9}{26}{Playing a VAG file}{figure.3.9}{}}
\citation{SDL}
\abx@aux@segm{0}{0}{SDL}
\@writefile{toc}{\defcounter {refsection}{0}\relax }\@writefile{toc}{\contentsline {chapter}{\numberline {4}Implementation}{27}{chapter.4}}
\@writefile{lof}{\defcounter {refsection}{0}\relax }\@writefile{lof}{\addvspace {10\p@ }}
\@writefile{lot}{\defcounter {refsection}{0}\relax }\@writefile{lot}{\addvspace {10\p@ }}
\newlabel{Chapter4}{{4}{27}{Implementation}{chapter.4}{}}
\@writefile{lof}{\defcounter {refsection}{0}\relax }\@writefile{lof}{\contentsline {figure}{\numberline {4.1}{\ignorespaces SDL VideoBootStrap list.}}{27}{figure.4.1}}
\newlabel{fig:bootstrap}{{4.1}{27}{SDL VideoBootStrap list}{figure.4.1}{}}
\@writefile{lof}{\defcounter {refsection}{0}\relax }\@writefile{lof}{\contentsline {figure}{\numberline {4.2}{\ignorespaces SDL Init implementation}}{28}{figure.4.2}}
\newlabel{fig:sdlinit}{{4.2}{28}{SDL Init implementation}{figure.4.2}{}}
\@writefile{toc}{\defcounter {refsection}{0}\relax }\@writefile{toc}{\contentsline {section}{\numberline {4.1}Video}{28}{section.4.1}}
\@writefile{toc}{\defcounter {refsection}{0}\relax }\@writefile{toc}{\contentsline {subsection}{\numberline {4.1.1}SDL\_SetVideoMode()}{28}{subsection.4.1.1}}
\@writefile{lof}{\defcounter {refsection}{0}\relax }\@writefile{lof}{\contentsline {figure}{\numberline {4.3}{\ignorespaces Beginning of \textit  {SDL\_SetVideoMode()}.}}{29}{figure.4.3}}
\newlabel{fig:sdlsetvideomode}{{4.3}{29}{Beginning of \textit {SDL\_SetVideoMode()}}{figure.4.3}{}}
\@writefile{lof}{\defcounter {refsection}{0}\relax }\@writefile{lof}{\contentsline {figure}{\numberline {4.4}{\ignorespaces Video initialization portion of \textit  {SDL\_SetVideoMode()} function}}{29}{figure.4.4}}
\newlabel{fig:gssetvideomode}{{4.4}{29}{Video initialization portion of \textit {SDL\_SetVideoMode()} function}{figure.4.4}{}}
\@writefile{lof}{\defcounter {refsection}{0}\relax }\@writefile{lof}{\contentsline {figure}{\numberline {4.5}{\ignorespaces Surface properties portion of \textit  {SDL\_SetVideoMode()}.}}{30}{figure.4.5}}
\newlabel{fig:screensurface}{{4.5}{30}{Surface properties portion of \textit {SDL\_SetVideoMode()}}{figure.4.5}{}}
\@writefile{toc}{\defcounter {refsection}{0}\relax }\@writefile{toc}{\contentsline {subsection}{\numberline {4.1.2}Drawing Back End - Method One}{30}{subsection.4.1.2}}
\@writefile{lof}{\defcounter {refsection}{0}\relax }\@writefile{lof}{\contentsline {figure}{\numberline {4.6}{\ignorespaces Method 1 for the SDL\_SetVideoMode() surface: a 'master sprite' acting as the entire screen.}}{31}{figure.4.6}}
\newlabel{fig:globalsprite}{{4.6}{31}{Method 1 for the SDL\_SetVideoMode() surface: a 'master sprite' acting as the entire screen}{figure.4.6}{}}
\@writefile{lof}{\defcounter {refsection}{0}\relax }\@writefile{lof}{\contentsline {figure}{\numberline {4.7}{\ignorespaces PSX Video Backend for drawing using a single screen sprite.}}{32}{figure.4.7}}
\newlabel{fig:globalspritecode}{{4.7}{32}{PSX Video Backend for drawing using a single screen sprite}{figure.4.7}{}}
\@writefile{lof}{\defcounter {refsection}{0}\relax }\@writefile{lof}{\contentsline {figure}{\numberline {4.8}{\ignorespaces Method 2 for the SDL\_SetVideoMode() surface: a list of \textit  {GsSprite}s mapped by a \textit  {SDL\_Surface} pointer.}}{33}{figure.4.8}}
\newlabel{fig:spritelist}{{4.8}{33}{Method 2 for the SDL\_SetVideoMode() surface: a list of \textit {GsSprite}s mapped by a \textit {SDL\_Surface} pointer}{figure.4.8}{}}
\@writefile{toc}{\defcounter {refsection}{0}\relax }\@writefile{toc}{\contentsline {subsection}{\numberline {4.1.3}Drawing Back End - Method Two}{33}{subsection.4.1.3}}
\newlabel{fig:sdlspritelist}{{4.1}{33}{\textit {SDL\_BlitSurface()} implementation using a \textit {GsSprite} list}{lstlisting.4.1}{}}
\@writefile{lol}{\defcounter {refsection}{0}\relax }\@writefile{lol}{\contentsline {lstlisting}{\numberline {4.1}\textit  {SDL\_BlitSurface()} implementation using a \textit  {GsSprite} list}{33}{lstlisting.4.1}}
\newlabel{fig:sdlloadbmpvram}{{4.2}{35}{Setting a new \textit {SDL\_Surface} pointer entry and loading the texture to VRAM}{lstlisting.4.2}{}}
\@writefile{lol}{\defcounter {refsection}{0}\relax }\@writefile{lol}{\contentsline {lstlisting}{\numberline {4.2}Setting a new \textit  {SDL\_Surface} pointer entry and loading the texture to VRAM}{35}{lstlisting.4.2}}
\citation{SDL}
\abx@aux@segm{0}{0}{SDL}
\@writefile{toc}{\defcounter {refsection}{0}\relax }\@writefile{toc}{\contentsline {subsection}{\numberline {4.1.4}SDL\_LoadBMP()}{37}{subsection.4.1.4}}
\newlabel{fig:sdlloadbmpbegin}{{4.3}{37}{Beginning of SDL\_LoadBMP implementation}{lstlisting.4.3}{}}
\@writefile{lol}{\defcounter {refsection}{0}\relax }\@writefile{lol}{\contentsline {lstlisting}{\numberline {4.3}Beginning of SDL\_LoadBMP implementation}{37}{lstlisting.4.3}}
\@writefile{lof}{\defcounter {refsection}{0}\relax }\@writefile{lof}{\contentsline {figure}{\numberline {4.9}{\ignorespaces 8 bit texture with (left) and without (right) 2 byte padding/alignment as stored in VRAM. The two stacked images are the textured sprites drawn in both display buffers and the top right right image is the stored texture.}}{39}{figure.4.9}}
\newlabel{fig:8bitvram}{{4.9}{39}{8 bit texture with (left) and without (right) 2 byte padding/alignment as stored in VRAM. The two stacked images are the textured sprites drawn in both display buffers and the top right right image is the stored texture}{figure.4.9}{}}
\newlabel{fig:sdlloadbmp8bit}{{4.4}{39}{Loading 8 bit BMP to VRAM}{lstlisting.4.4}{}}
\@writefile{lol}{\defcounter {refsection}{0}\relax }\@writefile{lol}{\contentsline {lstlisting}{\numberline {4.4}Loading 8 bit BMP to VRAM}{39}{lstlisting.4.4}}
\citation{bmpformat}
\abx@aux@cite{bmpformat}
\abx@aux@segm{0}{0}{bmpformat}
\newlabel{fig:sdlloadbmp16bit}{{4.5}{40}{Custom function for loading 16 bit BMPs}{lstlisting.4.5}{}}
\@writefile{lol}{\defcounter {refsection}{0}\relax }\@writefile{lol}{\contentsline {lstlisting}{\numberline {4.5}Custom function for loading 16 bit BMPs}{40}{lstlisting.4.5}}
\citation{sdlmixer}
\abx@aux@segm{0}{0}{sdlmixer}
\citation{PSXSDK}
\abx@aux@segm{0}{0}{PSXSDK}
\@writefile{toc}{\defcounter {refsection}{0}\relax }\@writefile{toc}{\contentsline {subsection}{\numberline {4.1.5}SDL\_FillRect()}{42}{subsection.4.1.5}}
\@writefile{toc}{\defcounter {refsection}{0}\relax }\@writefile{toc}{\contentsline {section}{\numberline {4.2}Audio}{42}{section.4.2}}
\@writefile{toc}{\defcounter {refsection}{0}\relax }\@writefile{toc}{\contentsline {subsection}{\numberline {4.2.1}Mix\_LoadMUS() and Mix\_LoadWAV()}{42}{subsection.4.2.1}}
\newlabel{loadmus}{{4.2.1}{42}{Mix\_LoadMUS() and Mix\_LoadWAV()}{subsection.4.2.1}{}}
\@writefile{lof}{\defcounter {refsection}{0}\relax }\@writefile{lof}{\contentsline {figure}{\numberline {4.10}{\ignorespaces \textit  {SDL\_FillRect()} implementation using PSXSDK primitives.}}{43}{figure.4.10}}
\newlabel{fig:fillrect}{{4.10}{43}{\textit {SDL\_FillRect()} implementation using PSXSDK primitives}{figure.4.10}{}}
\@writefile{lof}{\defcounter {refsection}{0}\relax }\@writefile{lof}{\contentsline {figure}{\numberline {4.11}{\ignorespaces \textit  {Mix\_OpenAudio()} implementation.}}{43}{figure.4.11}}
\newlabel{fig:mixopen}{{4.11}{43}{\textit {Mix\_OpenAudio()} implementation}{figure.4.11}{}}
\citation{PSXSDK}
\abx@aux@segm{0}{0}{PSXSDK}
\@writefile{toc}{\defcounter {refsection}{0}\relax }\@writefile{toc}{\contentsline {subsection}{\numberline {4.2.2}Playing and Pausing Music}{44}{subsection.4.2.2}}
\@writefile{toc}{\defcounter {refsection}{0}\relax }\@writefile{toc}{\contentsline {section}{\numberline {4.3}Events and Joystick}{44}{section.4.3}}
\@writefile{toc}{\defcounter {refsection}{0}\relax }\@writefile{toc}{\contentsline {subsection}{\numberline {4.3.1}SDL\_PollEvent()}{44}{subsection.4.3.1}}
\newlabel{fig:sdlpoll}{{4.6}{45}{\textit {SDL\_PollEvent()} implementation}{lstlisting.4.6}{}}
\@writefile{lol}{\defcounter {refsection}{0}\relax }\@writefile{lol}{\contentsline {lstlisting}{\numberline {4.6}\textit  {SDL\_PollEvent()} implementation.}{45}{lstlisting.4.6}}
\@writefile{toc}{\defcounter {refsection}{0}\relax }\@writefile{toc}{\contentsline {subsection}{\numberline {4.3.2}Joystick and Hats}{47}{subsection.4.3.2}}
\@writefile{lof}{\defcounter {refsection}{0}\relax }\@writefile{lof}{\contentsline {figure}{\numberline {4.12}{\ignorespaces \textit  {Mix\_LoadMUS()} implementation.}}{48}{figure.4.12}}
\newlabel{fig:mixloadmus}{{4.12}{48}{\textit {Mix\_LoadMUS()} implementation}{figure.4.12}{}}
\@writefile{lof}{\defcounter {refsection}{0}\relax }\@writefile{lof}{\contentsline {figure}{\numberline {4.13}{\ignorespaces \textit  {Mix\_LoadWAV()} implementation, basically the same as \textit  {Mix\_LoadMUS()} just using a different key array.}}{49}{figure.4.13}}
\newlabel{fig:mixloadwav}{{4.13}{49}{\textit {Mix\_LoadWAV()} implementation, basically the same as \textit {Mix\_LoadMUS()} just using a different key array}{figure.4.13}{}}
\@writefile{lof}{\defcounter {refsection}{0}\relax }\@writefile{lof}{\contentsline {figure}{\numberline {4.14}{\ignorespaces \textit  {MIX\_PlayMUS()} implementation.}}{50}{figure.4.14}}
\newlabel{fig:mixplaymus}{{4.14}{50}{\textit {MIX\_PlayMUS()} implementation}{figure.4.14}{}}
\@writefile{lof}{\defcounter {refsection}{0}\relax }\@writefile{lof}{\contentsline {figure}{\numberline {4.15}{\ignorespaces \textit  {MIX\_PlayChannel()} implementation.}}{50}{figure.4.15}}
\newlabel{fig:mixplaychan}{{4.15}{50}{\textit {MIX\_PlayChannel()} implementation}{figure.4.15}{}}
\@writefile{lof}{\defcounter {refsection}{0}\relax }\@writefile{lof}{\contentsline {figure}{\numberline {4.16}{\ignorespaces \textit  {MIX\_Pause/HaltMusic()} implementations.}}{51}{figure.4.16}}
\newlabel{fig:mixpausemus}{{4.16}{51}{\textit {MIX\_Pause/HaltMusic()} implementations}{figure.4.16}{}}
\@writefile{lof}{\defcounter {refsection}{0}\relax }\@writefile{lof}{\contentsline {figure}{\numberline {4.17}{\ignorespaces \textit  {SDL\_JoystickOpen()} implementation.}}{51}{figure.4.17}}
\newlabel{fig:joystickopen}{{4.17}{51}{\textit {SDL\_JoystickOpen()} implementation}{figure.4.17}{}}
\@writefile{lof}{\defcounter {refsection}{0}\relax }\@writefile{lof}{\contentsline {figure}{\numberline {4.18}{\ignorespaces \textit  {SDL\_JoystickUpdate()} implementation.}}{51}{figure.4.18}}
\newlabel{fig:joystickupdate}{{4.18}{51}{\textit {SDL\_JoystickUpdate()} implementation}{figure.4.18}{}}
\@writefile{lof}{\defcounter {refsection}{0}\relax }\@writefile{lof}{\contentsline {figure}{\numberline {4.19}{\ignorespaces \textit  {SDL\_JoystickGetHat()} implementation.}}{52}{figure.4.19}}
\newlabel{fig:joystickgethat}{{4.19}{52}{\textit {SDL\_JoystickGetHat()} implementation}{figure.4.19}{}}
\@writefile{lof}{\defcounter {refsection}{0}\relax }\@writefile{lof}{\contentsline {figure}{\numberline {4.20}{\ignorespaces \textit  {SDL\_JoystickGetAxis()} implementation.}}{53}{figure.4.20}}
\newlabel{fig:joystickgetaxis}{{4.20}{53}{\textit {SDL\_JoystickGetAxis()} implementation}{figure.4.20}{}}
\citation{clibrary}
\abx@aux@cite{clibrary}
\abx@aux@segm{0}{0}{clibrary}
\citation{NOPSX}
\abx@aux@segm{0}{0}{NOPSX}
\citation{PSIO}
\abx@aux@cite{PSIO}
\abx@aux@segm{0}{0}{PSIO}
\citation{PSIO}
\abx@aux@segm{0}{0}{PSIO}
\citation{PSIO}
\abx@aux@segm{0}{0}{PSIO}
\citation{PSIO}
\abx@aux@segm{0}{0}{PSIO}
\@writefile{toc}{\defcounter {refsection}{0}\relax }\@writefile{toc}{\contentsline {chapter}{\numberline {5}Results}{54}{chapter.5}}
\@writefile{lof}{\defcounter {refsection}{0}\relax }\@writefile{lof}{\addvspace {10\p@ }}
\@writefile{lot}{\defcounter {refsection}{0}\relax }\@writefile{lot}{\addvspace {10\p@ }}
\newlabel{Chapter5}{{5}{54}{Results}{chapter.5}{}}
\@writefile{toc}{\defcounter {refsection}{0}\relax }\@writefile{toc}{\contentsline {section}{\numberline {5.1}Compiling and Testing}{54}{section.5.1}}
\@writefile{toc}{\defcounter {refsection}{0}\relax }\@writefile{toc}{\contentsline {section}{\numberline {5.2}Example Application}{54}{section.5.2}}
\@writefile{lof}{\defcounter {refsection}{0}\relax }\@writefile{lof}{\contentsline {figure}{\numberline {5.1}{\ignorespaces PSIO device \cite {PSIO}. The bottom of the cartridge sticking out plugs into the back of the PlayStation\textsuperscript  {\textregistered } and you insert an SD card into the top. The hole on the left is where you plug in the usb cable to connect to a computer.}}{55}{figure.5.1}}
\newlabel{fig:psio}{{5.1}{55}{PSIO device \cite {PSIO}. The bottom of the cartridge sticking out plugs into the back of the PlayStation\textsuperscript {\textregistered } and you insert an SD card into the top. The hole on the left is where you plug in the usb cable to connect to a computer}{figure.5.1}{}}
\citation{SDLimage}
\abx@aux@segm{0}{0}{SDLimage}
\citation{SDLttf}
\abx@aux@cite{SDLttf}
\abx@aux@segm{0}{0}{SDLttf}
\@writefile{lof}{\defcounter {refsection}{0}\relax }\@writefile{lof}{\contentsline {figure}{\numberline {5.2}{\ignorespaces PSIO systems console \cite {PSIO}.}}{56}{figure.5.2}}
\newlabel{fig:syscon}{{5.2}{56}{PSIO systems console \cite {PSIO}}{figure.5.2}{}}
\@writefile{toc}{\defcounter {refsection}{0}\relax }\@writefile{toc}{\contentsline {section}{\numberline {5.3}Conclusion and Future Work}{56}{section.5.3}}
\@writefile{lof}{\defcounter {refsection}{0}\relax }\@writefile{lof}{\contentsline {figure}{\numberline {5.3}{\ignorespaces Test application resulting VRAM layout.}}{57}{figure.5.3}}
\newlabel{fig:gamevram}{{5.3}{57}{Test application resulting VRAM layout}{figure.5.3}{}}
\@writefile{lof}{\defcounter {refsection}{0}\relax }\@writefile{lof}{\contentsline {figure}{\numberline {5.4}{\ignorespaces Screenshot of the test application running on the PlayStation\textsuperscript  {\textregistered }.}}{58}{figure.5.4}}
\newlabel{fig:gamescreen}{{5.4}{58}{Screenshot of the test application running on the PlayStation\textsuperscript {\textregistered }}{figure.5.4}{}}
\@writefile{lof}{\defcounter {refsection}{0}\relax }\@writefile{lof}{\contentsline {figure}{\numberline {5.5}{\ignorespaces Part of the test application source code.}}{59}{figure.5.5}}
\newlabel{fig:testappsource}{{5.5}{59}{Part of the test application source code}{figure.5.5}{}}
\abx@aux@refcontextdefaultsdone
\abx@aux@defaultrefcontext{0}{SDL}{none/global//global/global}
\abx@aux@defaultrefcontext{0}{PSXSDK}{none/global//global/global}
\abx@aux@defaultrefcontext{0}{DoomFandom}{none/global//global/global}
\abx@aux@defaultrefcontext{0}{SDLWiki}{none/global//global/global}
\abx@aux@defaultrefcontext{0}{SDLApi}{none/global//global/global}
\abx@aux@defaultrefcontext{0}{SDLimage}{none/global//global/global}
\abx@aux@defaultrefcontext{0}{PS2}{none/global//global/global}
\abx@aux@defaultrefcontext{0}{PS3_l1ght}{none/global//global/global}
\abx@aux@defaultrefcontext{0}{SDLGithub}{none/global//global/global}
\abx@aux@defaultrefcontext{0}{NintendoDS}{none/global//global/global}
\abx@aux@defaultrefcontext{0}{3DS}{none/global//global/global}
\abx@aux@defaultrefcontext{0}{AmigaOS}{none/global//global/global}
\abx@aux@defaultrefcontext{0}{AmigaOS2}{none/global//global/global}
\abx@aux@defaultrefcontext{0}{Dreamcast}{none/global//global/global}
\abx@aux@defaultrefcontext{0}{Xbox}{none/global//global/global}
\abx@aux@defaultrefcontext{0}{Everything}{none/global//global/global}
\abx@aux@defaultrefcontext{0}{Titles}{none/global//global/global}
\abx@aux@defaultrefcontext{0}{Units}{none/global//global/global}
\abx@aux@defaultrefcontext{0}{NEXT6}{none/global//global/global}
\abx@aux@defaultrefcontext{0}{NOPSX}{none/global//global/global}
\abx@aux@defaultrefcontext{0}{NEXT}{none/global//global/global}
\abx@aux@defaultrefcontext{0}{hitmen}{none/global//global/global}
\abx@aux@defaultrefcontext{0}{zigmahornet}{none/global//global/global}
\abx@aux@defaultrefcontext{0}{musicalmusings}{none/global//global/global}
\abx@aux@defaultrefcontext{0}{cdplayerscreen}{none/global//global/global}
\abx@aux@defaultrefcontext{0}{asmalljourney}{none/global//global/global}
\abx@aux@defaultrefcontext{0}{bmpformat}{none/global//global/global}
\abx@aux@defaultrefcontext{0}{sdlmixer}{none/global//global/global}
\abx@aux@defaultrefcontext{0}{clibrary}{none/global//global/global}
\abx@aux@defaultrefcontext{0}{PSIO}{none/global//global/global}
\abx@aux@defaultrefcontext{0}{SDLttf}{none/global//global/global}
